{
  "519545": {
    "game_id": "519545",
    "game_name": "Hyrule Warriors: Age Of Calamity",
    "counters": {
      "rip": {
        "count": 0
      },
      "korok": {
        "count": 6,
        "max": 175
      }
    }
  },
  "110758": {
    "game_id": "110758",
    "game_name": "The Legend of Zelda: Breath of the Wild",
    "counters": {
      "rip": {
        "count": 102
      },
      "korok": {
        "count": 148,
        "max": 900
      },
      "shrines": {
        "count": 120,
        "max": 120
      }
    }
  }
}
